[
  {
    "id": "1",
    "uuid": "86b987d5-213c-4232-b5ae-8d0b5b2f5c7b",
    "props": {
      "name": "tree_species",
      "extraPropsDefs": {
        "no": {
          "key": "no"
        },
        "type": {
          "key": "type"
        },
        "spgrp_efdac": {
          "key": "spgrp_efdac"
        },
        "spcode_efdac": {
          "key": "spcode_efdac"
        }
      },
      "vernacularLanguageCodes": [
        "lat"
      ]
    },
    "published": true,
    "draft": false,
    "taxaCount": "287"
  }
]