[
  {
    "id": "150",
    "uuid": "48442bb3-bcea-4295-bf5b-9a53456c46cc",
    "props": {
      "code": "0",
      "labels": {
        "en": "Overstory / supernatants"
      },
      "descriptions": {
        "en": "Single remnant trees of the former forest generation that are much older and larger than the main canopy. Stocking degree or canopy cover is <0.3 (if stocking density is higher, these trees form the main canopy!)."
      }
    },
    "published": true,
    "draft": false,
    "levelUuid": "7d28a863-69bf-456e-93c4-5b33ad296629",
    "parentUuid": null
  },
  {
    "id": "151",
    "uuid": "d935326c-8991-42b8-b401-ffcaa1d74652",
    "props": {
      "code": "1",
      "labels": {
        "en": "Main canopy"
      },
      "descriptions": {
        "en": "The main canopy / layer of the current species or species combination that has the largest share on basal area and crown cover (also the main species of commercial interest). EVERY managed forest area has a main canopy layer!"
      }
    },
    "published": true,
    "draft": false,
    "levelUuid": "7d28a863-69bf-456e-93c4-5b33ad296629",
    "parentUuid": null
  },
  {
    "id": "152",
    "uuid": "5ee059ac-4de2-4685-9653-b843100848a5",
    "props": {
      "code": "2",
      "labels": {
        "en": "Understory"
      },
      "descriptions": {
        "en": "A second layer clearly lower than the main canopy layer."
      }
    },
    "published": true,
    "draft": false,
    "levelUuid": "7d28a863-69bf-456e-93c4-5b33ad296629",
    "parentUuid": null
  },
  {
    "id": "153",
    "uuid": "060e5832-c792-4c31-9aed-e3eb656b027b",
    "props": {
      "code": "99",
      "labels": {
        "en": "No layers"
      },
      "descriptions": {
        "en": "Forst structure is completely variable, no clear layers can be distinguished"
      }
    },
    "published": true,
    "draft": false,
    "levelUuid": "7d28a863-69bf-456e-93c4-5b33ad296629",
    "parentUuid": null
  }
]