[
  {
    "id": "51",
    "uuid": "99c608ad-f79e-4a85-b254-0958e959a7b2",
    "props": {
      "code": "99",
      "labels": {
        "en": "Non-forest area"
      }
    },
    "published": true,
    "draft": false,
    "levelUuid": "a6811be9-e7ba-4291-9e10-8349e01378b3",
    "parentUuid": null
  },
  {
    "id": "52",
    "uuid": "1bc47e4b-d643-4655-bee1-b59bbb1ab3e8",
    "props": {
      "code": "999",
      "labels": {
        "en": "Non-forest area"
      }
    },
    "published": true,
    "draft": false,
    "levelUuid": "1d095a84-9162-4779-a5ca-4c1a0d4022a0",
    "parentUuid": "99c608ad-f79e-4a85-b254-0958e959a7b2"
  },
  {
    "id": "53",
    "uuid": "f0d803f6-a71e-47aa-8680-85f10d709549",
    "props": {
      "code": "1",
      "labels": {
        "en": "Boreal forest"
      }
    },
    "published": true,
    "draft": false,
    "levelUuid": "a6811be9-e7ba-4291-9e10-8349e01378b3",
    "parentUuid": null
  },
  {
    "id": "54",
    "uuid": "7ec31425-6b9e-416e-8b6a-0482f55fcc27",
    "props": {
      "code": "1.1",
      "labels": {
        "en": "Spruce and spruce‑birch boreal forest"
      }
    },
    "published": true,
    "draft": false,
    "levelUuid": "1d095a84-9162-4779-a5ca-4c1a0d4022a0",
    "parentUuid": "f0d803f6-a71e-47aa-8680-85f10d709549"
  },
  {
    "id": "55",
    "uuid": "419f97c5-ce7b-4a9d-9578-47c21c9ed16d",
    "props": {
      "code": "1.2",
      "labels": {
        "en": "Pine and pine‑birch boreal forest"
      }
    },
    "published": true,
    "draft": false,
    "levelUuid": "1d095a84-9162-4779-a5ca-4c1a0d4022a0",
    "parentUuid": "f0d803f6-a71e-47aa-8680-85f10d709549"
  },
  {
    "id": "56",
    "uuid": "04a2553d-611c-494c-87f1-b91a670c20cd",
    "props": {
      "code": "2",
      "labels": {
        "en": "Hemiboreal forest and nemoral coniferous and mixed broadleaved‑coniferous forest"
      }
    },
    "published": true,
    "draft": false,
    "levelUuid": "a6811be9-e7ba-4291-9e10-8349e01378b3",
    "parentUuid": null
  },
  {
    "id": "57",
    "uuid": "906808b9-a117-475b-9c16-f247bbe6c964",
    "props": {
      "code": "2.1",
      "labels": {
        "en": "Hemiboreal forest"
      }
    },
    "published": true,
    "draft": false,
    "levelUuid": "1d095a84-9162-4779-a5ca-4c1a0d4022a0",
    "parentUuid": "04a2553d-611c-494c-87f1-b91a670c20cd"
  },
  {
    "id": "58",
    "uuid": "e1fc692b-23f1-41e1-aac6-cb4cd75c0504",
    "props": {
      "code": "2.2",
      "labels": {
        "en": "Nemoral Scots pine forest"
      }
    },
    "published": true,
    "draft": false,
    "levelUuid": "1d095a84-9162-4779-a5ca-4c1a0d4022a0",
    "parentUuid": "04a2553d-611c-494c-87f1-b91a670c20cd"
  },
  {
    "id": "59",
    "uuid": "916915f5-a39b-44e2-8202-b921c865e1fc",
    "props": {
      "code": "2.3",
      "labels": {
        "en": "Nemoral spruce forest"
      }
    },
    "published": true,
    "draft": false,
    "levelUuid": "1d095a84-9162-4779-a5ca-4c1a0d4022a0",
    "parentUuid": "04a2553d-611c-494c-87f1-b91a670c20cd"
  },
  {
    "id": "60",
    "uuid": "dbab02dc-9389-49de-af08-946b9800f29b",
    "props": {
      "code": "2.4",
      "labels": {
        "en": "Nemoral Black pine forest"
      }
    },
    "published": true,
    "draft": false,
    "levelUuid": "1d095a84-9162-4779-a5ca-4c1a0d4022a0",
    "parentUuid": "04a2553d-611c-494c-87f1-b91a670c20cd"
  },
  {
    "id": "61",
    "uuid": "644b854b-e873-4c51-abfd-7343b0f9f72d",
    "props": {
      "code": "2.5",
      "labels": {
        "en": "Mixed Scots pine‑birch forest"
      }
    },
    "published": true,
    "draft": false,
    "levelUuid": "1d095a84-9162-4779-a5ca-4c1a0d4022a0",
    "parentUuid": "04a2553d-611c-494c-87f1-b91a670c20cd"
  },
  {
    "id": "62",
    "uuid": "7971fb7b-face-4c32-ad8c-94d3b57f9f43",
    "props": {
      "code": "2.6",
      "labels": {
        "en": "Mixed Scots pine‑pedunculate oak forest"
      }
    },
    "published": true,
    "draft": false,
    "levelUuid": "1d095a84-9162-4779-a5ca-4c1a0d4022a0",
    "parentUuid": "04a2553d-611c-494c-87f1-b91a670c20cd"
  },
  {
    "id": "63",
    "uuid": "8b5c8d1a-0867-4cf9-b56a-78d8887666bd",
    "props": {
      "code": "3",
      "labels": {
        "en": "Alpine coniferous forest"
      }
    },
    "published": true,
    "draft": false,
    "levelUuid": "a6811be9-e7ba-4291-9e10-8349e01378b3",
    "parentUuid": null
  },
  {
    "id": "64",
    "uuid": "a78c07fb-00e3-4971-a9d2-745fc649eb72",
    "props": {
      "code": "3.1",
      "labels": {
        "en": "Subalpine larch‑arolla pine and dwarf pine forest"
      }
    },
    "published": true,
    "draft": false,
    "levelUuid": "1d095a84-9162-4779-a5ca-4c1a0d4022a0",
    "parentUuid": "8b5c8d1a-0867-4cf9-b56a-78d8887666bd"
  },
  {
    "id": "65",
    "uuid": "c2ede592-eab4-4d55-b8e9-0c11cd5b0f9c",
    "props": {
      "code": "3.2",
      "labels": {
        "en": "Subalpine and mountainous spruce and mountainous mixed spruce‑silver fir forest"
      }
    },
    "published": true,
    "draft": false,
    "levelUuid": "1d095a84-9162-4779-a5ca-4c1a0d4022a0",
    "parentUuid": "8b5c8d1a-0867-4cf9-b56a-78d8887666bd"
  },
  {
    "id": "66",
    "uuid": "62dbcbfd-4071-475b-877f-6426660e1ad6",
    "props": {
      "code": "3.3",
      "labels": {
        "en": "Alpine Scots pine and Black pine forest"
      }
    },
    "published": true,
    "draft": false,
    "levelUuid": "1d095a84-9162-4779-a5ca-4c1a0d4022a0",
    "parentUuid": "8b5c8d1a-0867-4cf9-b56a-78d8887666bd"
  },
  {
    "id": "67",
    "uuid": "aa602640-8fb5-42de-8eaa-e3f06d31397f",
    "props": {
      "code": "4",
      "labels": {
        "en": "Acidophilous oak and oak‑birch forest"
      }
    },
    "published": true,
    "draft": false,
    "levelUuid": "a6811be9-e7ba-4291-9e10-8349e01378b3",
    "parentUuid": null
  },
  {
    "id": "68",
    "uuid": "29f50009-8225-4942-b7e7-f6492c3b4abc",
    "props": {
      "code": "4.1",
      "labels": {
        "en": "Acidophilous oakwood"
      }
    },
    "published": true,
    "draft": false,
    "levelUuid": "1d095a84-9162-4779-a5ca-4c1a0d4022a0",
    "parentUuid": "aa602640-8fb5-42de-8eaa-e3f06d31397f"
  },
  {
    "id": "69",
    "uuid": "8360e894-9b76-43b2-89fc-650a5479162f",
    "props": {
      "code": "4.2",
      "labels": {
        "en": "Oak‑birch forest"
      }
    },
    "published": true,
    "draft": false,
    "levelUuid": "1d095a84-9162-4779-a5ca-4c1a0d4022a0",
    "parentUuid": "aa602640-8fb5-42de-8eaa-e3f06d31397f"
  },
  {
    "id": "70",
    "uuid": "07d274c1-6bb8-414a-bb2f-d956b79083af",
    "props": {
      "code": "5",
      "labels": {
        "en": "Mesophytic deciduous forest"
      }
    },
    "published": true,
    "draft": false,
    "levelUuid": "a6811be9-e7ba-4291-9e10-8349e01378b3",
    "parentUuid": null
  },
  {
    "id": "71",
    "uuid": "b816f997-499e-4196-923a-6bd12bd64a21",
    "props": {
      "code": "5.1",
      "labels": {
        "en": "Pedunculate oak–hornbeam forest"
      }
    },
    "published": true,
    "draft": false,
    "levelUuid": "1d095a84-9162-4779-a5ca-4c1a0d4022a0",
    "parentUuid": "07d274c1-6bb8-414a-bb2f-d956b79083af"
  },
  {
    "id": "72",
    "uuid": "f6c49f05-4ac9-472c-866d-1fa25ad6a885",
    "props": {
      "code": "5.2",
      "labels": {
        "en": "Sessile oak–hornbeam forest"
      }
    },
    "published": true,
    "draft": false,
    "levelUuid": "1d095a84-9162-4779-a5ca-4c1a0d4022a0",
    "parentUuid": "07d274c1-6bb8-414a-bb2f-d956b79083af"
  },
  {
    "id": "73",
    "uuid": "4aef2cd7-7cae-40c8-8b1a-e9e774d96c3d",
    "props": {
      "code": "5.3",
      "labels": {
        "en": "Ashwood and oak‑ash forest"
      }
    },
    "published": true,
    "draft": false,
    "levelUuid": "1d095a84-9162-4779-a5ca-4c1a0d4022a0",
    "parentUuid": "07d274c1-6bb8-414a-bb2f-d956b79083af"
  },
  {
    "id": "74",
    "uuid": "fa6479ce-c3d7-4c79-abde-ad88004aead2",
    "props": {
      "code": "5.4",
      "labels": {
        "en": "Maple‑oak forest"
      }
    },
    "published": true,
    "draft": false,
    "levelUuid": "1d095a84-9162-4779-a5ca-4c1a0d4022a0",
    "parentUuid": "07d274c1-6bb8-414a-bb2f-d956b79083af"
  },
  {
    "id": "75",
    "uuid": "849784d0-9246-4d7a-a1c5-ecffab071d50",
    "props": {
      "code": "5.5",
      "labels": {
        "en": "Lime‑oak forest"
      }
    },
    "published": true,
    "draft": false,
    "levelUuid": "1d095a84-9162-4779-a5ca-4c1a0d4022a0",
    "parentUuid": "07d274c1-6bb8-414a-bb2f-d956b79083af"
  },
  {
    "id": "76",
    "uuid": "3d1aa636-cb79-4ee5-bcaa-43ea4cf20006",
    "props": {
      "code": "5.6",
      "labels": {
        "en": "Maple‑lime forest"
      }
    },
    "published": true,
    "draft": false,
    "levelUuid": "1d095a84-9162-4779-a5ca-4c1a0d4022a0",
    "parentUuid": "07d274c1-6bb8-414a-bb2f-d956b79083af"
  },
  {
    "id": "77",
    "uuid": "b6eab92e-214d-44ac-96fa-a5bc8c1ca372",
    "props": {
      "code": "5.7",
      "labels": {
        "en": "Lime forest"
      }
    },
    "published": true,
    "draft": false,
    "levelUuid": "1d095a84-9162-4779-a5ca-4c1a0d4022a0",
    "parentUuid": "07d274c1-6bb8-414a-bb2f-d956b79083af"
  },
  {
    "id": "78",
    "uuid": "647c0feb-fdce-46c4-9191-5340ae05197b",
    "props": {
      "code": "5.8",
      "labels": {
        "en": "Ravine and slope forest"
      }
    },
    "published": true,
    "draft": false,
    "levelUuid": "1d095a84-9162-4779-a5ca-4c1a0d4022a0",
    "parentUuid": "07d274c1-6bb8-414a-bb2f-d956b79083af"
  },
  {
    "id": "79",
    "uuid": "cd0d1d90-3cc2-41f3-ad38-86dc4fdeb459",
    "props": {
      "code": "5.9",
      "labels": {
        "en": "Other mesophytic deciduous forests"
      }
    },
    "published": true,
    "draft": false,
    "levelUuid": "1d095a84-9162-4779-a5ca-4c1a0d4022a0",
    "parentUuid": "07d274c1-6bb8-414a-bb2f-d956b79083af"
  },
  {
    "id": "80",
    "uuid": "6c8f4968-24f3-43df-bdf3-6d48ea55e004",
    "props": {
      "code": "6",
      "labels": {
        "en": "Beech forest"
      }
    },
    "published": true,
    "draft": false,
    "levelUuid": "a6811be9-e7ba-4291-9e10-8349e01378b3",
    "parentUuid": null
  },
  {
    "id": "81",
    "uuid": "81a534e5-99c7-438b-b410-ccddd61c0682",
    "props": {
      "code": "6.1",
      "labels": {
        "en": "Lowland beech forest of southern Scandinavia and north central Europe"
      }
    },
    "published": true,
    "draft": false,
    "levelUuid": "1d095a84-9162-4779-a5ca-4c1a0d4022a0",
    "parentUuid": "6c8f4968-24f3-43df-bdf3-6d48ea55e004"
  },
  {
    "id": "82",
    "uuid": "f40ac470-0351-4beb-a215-4c8d9bd16ecd",
    "props": {
      "code": "6.2",
      "labels": {
        "en": "Atlantic and subatlantic lowland beech forest"
      }
    },
    "published": true,
    "draft": false,
    "levelUuid": "1d095a84-9162-4779-a5ca-4c1a0d4022a0",
    "parentUuid": "6c8f4968-24f3-43df-bdf3-6d48ea55e004"
  },
  {
    "id": "83",
    "uuid": "ee1215ae-8f4b-4514-abea-2edb93bddf3c",
    "props": {
      "code": "6.3",
      "labels": {
        "en": "Subatlantic submountainous beech forest"
      }
    },
    "published": true,
    "draft": false,
    "levelUuid": "1d095a84-9162-4779-a5ca-4c1a0d4022a0",
    "parentUuid": "6c8f4968-24f3-43df-bdf3-6d48ea55e004"
  },
  {
    "id": "84",
    "uuid": "cd52a270-57e9-4dee-a9f6-86dc1a796344",
    "props": {
      "code": "6.4",
      "labels": {
        "en": "Central European submountainous beech forest"
      }
    },
    "published": true,
    "draft": false,
    "levelUuid": "1d095a84-9162-4779-a5ca-4c1a0d4022a0",
    "parentUuid": "6c8f4968-24f3-43df-bdf3-6d48ea55e004"
  },
  {
    "id": "85",
    "uuid": "0c817417-63af-4332-8e00-dbdd982df31a",
    "props": {
      "code": "6.5",
      "labels": {
        "en": "Carpathian submountainous beech forest"
      }
    },
    "published": true,
    "draft": false,
    "levelUuid": "1d095a84-9162-4779-a5ca-4c1a0d4022a0",
    "parentUuid": "6c8f4968-24f3-43df-bdf3-6d48ea55e004"
  },
  {
    "id": "86",
    "uuid": "e6b23ae3-a42d-43ce-857e-be073f4c373f",
    "props": {
      "code": "6.6",
      "labels": {
        "en": "Illyrian submountainous beech forest"
      }
    },
    "published": true,
    "draft": false,
    "levelUuid": "1d095a84-9162-4779-a5ca-4c1a0d4022a0",
    "parentUuid": "6c8f4968-24f3-43df-bdf3-6d48ea55e004"
  },
  {
    "id": "87",
    "uuid": "860fa4ab-b81f-4ca1-8fc9-257c87c3c1fc",
    "props": {
      "code": "6.7",
      "labels": {
        "en": "Moesian submountainous beech forest"
      }
    },
    "published": true,
    "draft": false,
    "levelUuid": "1d095a84-9162-4779-a5ca-4c1a0d4022a0",
    "parentUuid": "6c8f4968-24f3-43df-bdf3-6d48ea55e004"
  },
  {
    "id": "88",
    "uuid": "019a00f9-9732-4845-8634-927a0fd91caa",
    "props": {
      "code": "7",
      "labels": {
        "en": "Mountainous beech forest"
      }
    },
    "published": true,
    "draft": false,
    "levelUuid": "a6811be9-e7ba-4291-9e10-8349e01378b3",
    "parentUuid": null
  },
  {
    "id": "89",
    "uuid": "62196e87-b4d7-40a7-b4de-af7040bbc41f",
    "props": {
      "code": "7.1",
      "labels": {
        "en": "South western European mountainous beech forest (Cantabrians, Pyrenees, central Massif, south western Alps)"
      }
    },
    "published": true,
    "draft": false,
    "levelUuid": "1d095a84-9162-4779-a5ca-4c1a0d4022a0",
    "parentUuid": "019a00f9-9732-4845-8634-927a0fd91caa"
  },
  {
    "id": "90",
    "uuid": "65414a48-3de3-420a-88fb-7e82a00d0867",
    "props": {
      "code": "7.2",
      "labels": {
        "en": "Central European mountainous beech forest"
      }
    },
    "published": true,
    "draft": false,
    "levelUuid": "1d095a84-9162-4779-a5ca-4c1a0d4022a0",
    "parentUuid": "019a00f9-9732-4845-8634-927a0fd91caa"
  },
  {
    "id": "91",
    "uuid": "9e8e2047-e9fe-4ab4-9713-c7d4eeb9aaa3",
    "props": {
      "code": "7.3",
      "labels": {
        "en": "Apennine‑Corsican mountainous beech forest"
      }
    },
    "published": true,
    "draft": false,
    "levelUuid": "1d095a84-9162-4779-a5ca-4c1a0d4022a0",
    "parentUuid": "019a00f9-9732-4845-8634-927a0fd91caa"
  },
  {
    "id": "92",
    "uuid": "8cc31179-46c8-408b-9a2d-3e13b1aa65a0",
    "props": {
      "code": "7.4",
      "labels": {
        "en": "Illyrian mountainous beech forest"
      }
    },
    "published": true,
    "draft": false,
    "levelUuid": "1d095a84-9162-4779-a5ca-4c1a0d4022a0",
    "parentUuid": "019a00f9-9732-4845-8634-927a0fd91caa"
  },
  {
    "id": "93",
    "uuid": "bab29457-2c05-4e01-9e51-50445a66039f",
    "props": {
      "code": "7.5",
      "labels": {
        "en": "Carpathian mountainous beech forest"
      }
    },
    "published": true,
    "draft": false,
    "levelUuid": "1d095a84-9162-4779-a5ca-4c1a0d4022a0",
    "parentUuid": "019a00f9-9732-4845-8634-927a0fd91caa"
  },
  {
    "id": "94",
    "uuid": "075ebdcb-17ac-4b65-b8bb-088661d66027",
    "props": {
      "code": "7.6",
      "labels": {
        "en": "Moesian mountainous beech forest"
      }
    },
    "published": true,
    "draft": false,
    "levelUuid": "1d095a84-9162-4779-a5ca-4c1a0d4022a0",
    "parentUuid": "019a00f9-9732-4845-8634-927a0fd91caa"
  },
  {
    "id": "95",
    "uuid": "f9571f97-ae70-49e5-bd35-6bd64575ad7d",
    "props": {
      "code": "7.7",
      "labels": {
        "en": "Crimean mountainous beech forest"
      }
    },
    "published": true,
    "draft": false,
    "levelUuid": "1d095a84-9162-4779-a5ca-4c1a0d4022a0",
    "parentUuid": "019a00f9-9732-4845-8634-927a0fd91caa"
  },
  {
    "id": "96",
    "uuid": "4747b958-a810-4374-9817-787399143a71",
    "props": {
      "code": "7.8",
      "labels": {
        "en": "Oriental beech and hornbeam‑oriental beech forest"
      }
    },
    "published": true,
    "draft": false,
    "levelUuid": "1d095a84-9162-4779-a5ca-4c1a0d4022a0",
    "parentUuid": "019a00f9-9732-4845-8634-927a0fd91caa"
  },
  {
    "id": "97",
    "uuid": "70f2ff0a-3b8f-4a87-923d-c9075e9b0170",
    "props": {
      "code": "8",
      "labels": {
        "en": "Thermophilous deciduous forest"
      }
    },
    "published": true,
    "draft": false,
    "levelUuid": "a6811be9-e7ba-4291-9e10-8349e01378b3",
    "parentUuid": null
  },
  {
    "id": "98",
    "uuid": "1086eebd-49e4-4973-989f-ee80d7fbb715",
    "props": {
      "code": "8.1",
      "labels": {
        "en": "Downy oak forest"
      }
    },
    "published": true,
    "draft": false,
    "levelUuid": "1d095a84-9162-4779-a5ca-4c1a0d4022a0",
    "parentUuid": "70f2ff0a-3b8f-4a87-923d-c9075e9b0170"
  },
  {
    "id": "99",
    "uuid": "3c14810a-082c-4c83-84ef-f4a8123914d7",
    "props": {
      "code": "8.2",
      "labels": {
        "en": "Turkey oak, Hungarian oak and Sessile oak forest"
      }
    },
    "published": true,
    "draft": false,
    "levelUuid": "1d095a84-9162-4779-a5ca-4c1a0d4022a0",
    "parentUuid": "70f2ff0a-3b8f-4a87-923d-c9075e9b0170"
  },
  {
    "id": "100",
    "uuid": "bfb8f859-aa08-46f2-9ad6-edf682db9c03",
    "props": {
      "code": "8.3",
      "labels": {
        "en": "Pyrenean oak forest"
      }
    },
    "published": true,
    "draft": false,
    "levelUuid": "1d095a84-9162-4779-a5ca-4c1a0d4022a0",
    "parentUuid": "70f2ff0a-3b8f-4a87-923d-c9075e9b0170"
  },
  {
    "id": "101",
    "uuid": "2682ac17-8341-4c8b-8d56-f9a11ef7a209",
    "props": {
      "code": "8.4",
      "labels": {
        "en": "Portuguese oak and Mirbeck's oak Iberian forest"
      }
    },
    "published": true,
    "draft": false,
    "levelUuid": "1d095a84-9162-4779-a5ca-4c1a0d4022a0",
    "parentUuid": "70f2ff0a-3b8f-4a87-923d-c9075e9b0170"
  },
  {
    "id": "102",
    "uuid": "82576acc-fe20-4a7d-9bcd-f6ed33497796",
    "props": {
      "code": "8.5",
      "labels": {
        "en": "Macedonian oak forest"
      }
    },
    "published": true,
    "draft": false,
    "levelUuid": "1d095a84-9162-4779-a5ca-4c1a0d4022a0",
    "parentUuid": "70f2ff0a-3b8f-4a87-923d-c9075e9b0170"
  },
  {
    "id": "103",
    "uuid": "3c5782ff-b30e-4576-9f48-b360d8a5463c",
    "props": {
      "code": "8.6",
      "labels": {
        "en": "Valonia oak forest"
      }
    },
    "published": true,
    "draft": false,
    "levelUuid": "1d095a84-9162-4779-a5ca-4c1a0d4022a0",
    "parentUuid": "70f2ff0a-3b8f-4a87-923d-c9075e9b0170"
  },
  {
    "id": "104",
    "uuid": "2e5f8514-cffa-4a59-80a0-109c61f9df09",
    "props": {
      "code": "8.7",
      "labels": {
        "en": "Chestnut forest"
      }
    },
    "published": true,
    "draft": false,
    "levelUuid": "1d095a84-9162-4779-a5ca-4c1a0d4022a0",
    "parentUuid": "70f2ff0a-3b8f-4a87-923d-c9075e9b0170"
  },
  {
    "id": "105",
    "uuid": "bac8b983-a949-4892-97ff-52c5307d2c6b",
    "props": {
      "code": "8.8",
      "labels": {
        "en": "Other thermophilous deciduous forests"
      }
    },
    "published": true,
    "draft": false,
    "levelUuid": "1d095a84-9162-4779-a5ca-4c1a0d4022a0",
    "parentUuid": "70f2ff0a-3b8f-4a87-923d-c9075e9b0170"
  },
  {
    "id": "106",
    "uuid": "c7239544-aa38-4c0e-97e6-f6a2184236a8",
    "props": {
      "code": "9",
      "labels": {
        "en": "Broadleaved evergreen forest"
      }
    },
    "published": true,
    "draft": false,
    "levelUuid": "a6811be9-e7ba-4291-9e10-8349e01378b3",
    "parentUuid": null
  },
  {
    "id": "107",
    "uuid": "9b3a66eb-3e7b-40ef-bd70-d8ae9c2b9a46",
    "props": {
      "code": "9.1",
      "labels": {
        "en": "Mediterranean evergreen oak forest"
      }
    },
    "published": true,
    "draft": false,
    "levelUuid": "1d095a84-9162-4779-a5ca-4c1a0d4022a0",
    "parentUuid": "c7239544-aa38-4c0e-97e6-f6a2184236a8"
  },
  {
    "id": "108",
    "uuid": "1b6a5965-fa5b-4efe-9d40-c73ee126d8e1",
    "props": {
      "code": "9.2",
      "labels": {
        "en": "Olive‑carob forest"
      }
    },
    "published": true,
    "draft": false,
    "levelUuid": "1d095a84-9162-4779-a5ca-4c1a0d4022a0",
    "parentUuid": "c7239544-aa38-4c0e-97e6-f6a2184236a8"
  },
  {
    "id": "109",
    "uuid": "c77c37da-366d-4949-814a-b14e3ec84e26",
    "props": {
      "code": "9.3",
      "labels": {
        "en": "Palm groves"
      }
    },
    "published": true,
    "draft": false,
    "levelUuid": "1d095a84-9162-4779-a5ca-4c1a0d4022a0",
    "parentUuid": "c7239544-aa38-4c0e-97e6-f6a2184236a8"
  },
  {
    "id": "110",
    "uuid": "0c4d3302-fcef-4bba-b39c-90929a06de54",
    "props": {
      "code": "9.4",
      "labels": {
        "en": "Macaronesian laurisilva"
      }
    },
    "published": true,
    "draft": false,
    "levelUuid": "1d095a84-9162-4779-a5ca-4c1a0d4022a0",
    "parentUuid": "c7239544-aa38-4c0e-97e6-f6a2184236a8"
  },
  {
    "id": "111",
    "uuid": "b5c09f68-bf9e-400e-a646-7ff70917326c",
    "props": {
      "code": "9.5",
      "labels": {
        "en": "Other sclerophlyllous forests"
      }
    },
    "published": true,
    "draft": false,
    "levelUuid": "1d095a84-9162-4779-a5ca-4c1a0d4022a0",
    "parentUuid": "c7239544-aa38-4c0e-97e6-f6a2184236a8"
  },
  {
    "id": "112",
    "uuid": "281833ab-4e2b-41d2-89d4-86e4cd618d8c",
    "props": {
      "code": "10",
      "labels": {
        "en": "Coniferous forests of the Mediterranean, Anatolian and Macaronesian regions"
      }
    },
    "published": true,
    "draft": false,
    "levelUuid": "a6811be9-e7ba-4291-9e10-8349e01378b3",
    "parentUuid": null
  },
  {
    "id": "113",
    "uuid": "b7ea1c78-bdfd-4bf2-865a-afd00935cccb",
    "props": {
      "code": "10.1",
      "labels": {
        "en": "Mediterranean pine forest"
      }
    },
    "published": true,
    "draft": false,
    "levelUuid": "1d095a84-9162-4779-a5ca-4c1a0d4022a0",
    "parentUuid": "281833ab-4e2b-41d2-89d4-86e4cd618d8c"
  },
  {
    "id": "114",
    "uuid": "a377176c-19a4-4418-bfa5-fab57d91f293",
    "props": {
      "code": "10.2",
      "labels": {
        "en": "Mediterranean and Anatolian Black pine forest"
      }
    },
    "published": true,
    "draft": false,
    "levelUuid": "1d095a84-9162-4779-a5ca-4c1a0d4022a0",
    "parentUuid": "281833ab-4e2b-41d2-89d4-86e4cd618d8c"
  },
  {
    "id": "115",
    "uuid": "29a57e5f-d484-46d4-8205-41f0e947254c",
    "props": {
      "code": "10.3",
      "labels": {
        "en": "Canarian pine forest"
      }
    },
    "published": true,
    "draft": false,
    "levelUuid": "1d095a84-9162-4779-a5ca-4c1a0d4022a0",
    "parentUuid": "281833ab-4e2b-41d2-89d4-86e4cd618d8c"
  },
  {
    "id": "116",
    "uuid": "a9443d9b-0f56-49e9-a946-baec33eb3410",
    "props": {
      "code": "10.4",
      "labels": {
        "en": "Mediterranean and Anatolian Scots pine forest"
      }
    },
    "published": true,
    "draft": false,
    "levelUuid": "1d095a84-9162-4779-a5ca-4c1a0d4022a0",
    "parentUuid": "281833ab-4e2b-41d2-89d4-86e4cd618d8c"
  },
  {
    "id": "117",
    "uuid": "f21e9a4f-f587-4bfa-b47a-4aa5b00c3328",
    "props": {
      "code": "10.5",
      "labels": {
        "en": "Alti‑Mediterranean pine forest"
      }
    },
    "published": true,
    "draft": false,
    "levelUuid": "1d095a84-9162-4779-a5ca-4c1a0d4022a0",
    "parentUuid": "281833ab-4e2b-41d2-89d4-86e4cd618d8c"
  },
  {
    "id": "118",
    "uuid": "cf77accc-38cc-4e82-92df-1589121d569d",
    "props": {
      "code": "10.6",
      "labels": {
        "en": "Mediterranean and Anatolian fir forest"
      }
    },
    "published": true,
    "draft": false,
    "levelUuid": "1d095a84-9162-4779-a5ca-4c1a0d4022a0",
    "parentUuid": "281833ab-4e2b-41d2-89d4-86e4cd618d8c"
  },
  {
    "id": "119",
    "uuid": "b165b680-1ddf-4836-b39d-b51739f83081",
    "props": {
      "code": "10.7",
      "labels": {
        "en": "Juniper forest"
      }
    },
    "published": true,
    "draft": false,
    "levelUuid": "1d095a84-9162-4779-a5ca-4c1a0d4022a0",
    "parentUuid": "281833ab-4e2b-41d2-89d4-86e4cd618d8c"
  },
  {
    "id": "120",
    "uuid": "dda431f7-65a3-498e-94e2-545fb5c019e2",
    "props": {
      "code": "10.8",
      "labels": {
        "en": "Cypress forest"
      }
    },
    "published": true,
    "draft": false,
    "levelUuid": "1d095a84-9162-4779-a5ca-4c1a0d4022a0",
    "parentUuid": "281833ab-4e2b-41d2-89d4-86e4cd618d8c"
  },
  {
    "id": "121",
    "uuid": "8613c832-48a4-4c51-811f-a7e32b6c1e64",
    "props": {
      "code": "10.9",
      "labels": {
        "en": "Cedar forest"
      }
    },
    "published": true,
    "draft": false,
    "levelUuid": "1d095a84-9162-4779-a5ca-4c1a0d4022a0",
    "parentUuid": "281833ab-4e2b-41d2-89d4-86e4cd618d8c"
  },
  {
    "id": "122",
    "uuid": "b2eafd1d-7bd1-4d79-86b3-642bab32d2dc",
    "props": {
      "code": "10.10",
      "labels": {
        "en": "Tetraclinis articulata stands"
      }
    },
    "published": true,
    "draft": false,
    "levelUuid": "1d095a84-9162-4779-a5ca-4c1a0d4022a0",
    "parentUuid": "281833ab-4e2b-41d2-89d4-86e4cd618d8c"
  },
  {
    "id": "123",
    "uuid": "42377366-b32e-4838-9012-c2eccfa57404",
    "props": {
      "code": "10.11",
      "labels": {
        "en": "Mediterranean yew stands"
      }
    },
    "published": true,
    "draft": false,
    "levelUuid": "1d095a84-9162-4779-a5ca-4c1a0d4022a0",
    "parentUuid": "281833ab-4e2b-41d2-89d4-86e4cd618d8c"
  },
  {
    "id": "124",
    "uuid": "8a0c74a0-e540-4313-b413-93efa07b6de2",
    "props": {
      "code": "11",
      "labels": {
        "en": "Mire and swamp forest"
      }
    },
    "published": true,
    "draft": false,
    "levelUuid": "a6811be9-e7ba-4291-9e10-8349e01378b3",
    "parentUuid": null
  },
  {
    "id": "125",
    "uuid": "061e86dc-a47a-4d02-a9ca-0c46cf2c39df",
    "props": {
      "code": "11.1",
      "labels": {
        "en": "Conifer dominated or mixed mire forest"
      }
    },
    "published": true,
    "draft": false,
    "levelUuid": "1d095a84-9162-4779-a5ca-4c1a0d4022a0",
    "parentUuid": "8a0c74a0-e540-4313-b413-93efa07b6de2"
  },
  {
    "id": "126",
    "uuid": "b1082273-995e-4752-86b4-5540efc34b7e",
    "props": {
      "code": "11.2",
      "labels": {
        "en": "Alder swamp forest"
      }
    },
    "published": true,
    "draft": false,
    "levelUuid": "1d095a84-9162-4779-a5ca-4c1a0d4022a0",
    "parentUuid": "8a0c74a0-e540-4313-b413-93efa07b6de2"
  },
  {
    "id": "127",
    "uuid": "876605ca-93b7-4c07-8fa5-0cc9559060c8",
    "props": {
      "code": "11.3",
      "labels": {
        "en": "Birch swamp forest"
      }
    },
    "published": true,
    "draft": false,
    "levelUuid": "1d095a84-9162-4779-a5ca-4c1a0d4022a0",
    "parentUuid": "8a0c74a0-e540-4313-b413-93efa07b6de2"
  },
  {
    "id": "128",
    "uuid": "c4324c99-3ec7-41b8-a34c-c407b6e615bd",
    "props": {
      "code": "11.4",
      "labels": {
        "en": "Pedunculate oak swamp forest"
      }
    },
    "published": true,
    "draft": false,
    "levelUuid": "1d095a84-9162-4779-a5ca-4c1a0d4022a0",
    "parentUuid": "8a0c74a0-e540-4313-b413-93efa07b6de2"
  },
  {
    "id": "129",
    "uuid": "3b713aa4-c54e-4be5-bd15-45afbc6ff759",
    "props": {
      "code": "11.5",
      "labels": {
        "en": "Aspen swamp forest"
      }
    },
    "published": true,
    "draft": false,
    "levelUuid": "1d095a84-9162-4779-a5ca-4c1a0d4022a0",
    "parentUuid": "8a0c74a0-e540-4313-b413-93efa07b6de2"
  },
  {
    "id": "130",
    "uuid": "c2218263-2513-4c2b-bf92-678cbf2fdf8d",
    "props": {
      "code": "12",
      "labels": {
        "en": "Floodplain forest"
      }
    },
    "published": true,
    "draft": false,
    "levelUuid": "a6811be9-e7ba-4291-9e10-8349e01378b3",
    "parentUuid": null
  },
  {
    "id": "131",
    "uuid": "3d428266-a7e7-457d-b6cd-65910dfc6c12",
    "props": {
      "code": "12.1",
      "labels": {
        "en": "Riparian forest"
      }
    },
    "published": true,
    "draft": false,
    "levelUuid": "1d095a84-9162-4779-a5ca-4c1a0d4022a0",
    "parentUuid": "c2218263-2513-4c2b-bf92-678cbf2fdf8d"
  },
  {
    "id": "132",
    "uuid": "b57d1a06-02a9-463d-9e32-b1a0af513785",
    "props": {
      "code": "12.2",
      "labels": {
        "en": "Fluvial forest"
      }
    },
    "published": true,
    "draft": false,
    "levelUuid": "1d095a84-9162-4779-a5ca-4c1a0d4022a0",
    "parentUuid": "c2218263-2513-4c2b-bf92-678cbf2fdf8d"
  },
  {
    "id": "133",
    "uuid": "91b70f64-7242-4471-80c7-583b94ac2f64",
    "props": {
      "code": "12.3",
      "labels": {
        "en": "Mediterranean and Macaronesian riparian forest"
      }
    },
    "published": true,
    "draft": false,
    "levelUuid": "1d095a84-9162-4779-a5ca-4c1a0d4022a0",
    "parentUuid": "c2218263-2513-4c2b-bf92-678cbf2fdf8d"
  },
  {
    "id": "134",
    "uuid": "30cc45d9-fd3a-4d9b-a273-b131af47c3ad",
    "props": {
      "code": "13",
      "labels": {
        "en": "Non riverine alder, birch, or aspen forest"
      }
    },
    "published": true,
    "draft": false,
    "levelUuid": "a6811be9-e7ba-4291-9e10-8349e01378b3",
    "parentUuid": null
  },
  {
    "id": "135",
    "uuid": "4fc917dc-9c10-4f50-9c9b-ef480c070b0e",
    "props": {
      "code": "13.1",
      "labels": {
        "en": "Alder forest"
      }
    },
    "published": true,
    "draft": false,
    "levelUuid": "1d095a84-9162-4779-a5ca-4c1a0d4022a0",
    "parentUuid": "30cc45d9-fd3a-4d9b-a273-b131af47c3ad"
  },
  {
    "id": "136",
    "uuid": "9e9e24f9-8c9d-4268-9ee9-fc6356e23094",
    "props": {
      "code": "13.2",
      "labels": {
        "en": "Italian alder forest"
      }
    },
    "published": true,
    "draft": false,
    "levelUuid": "1d095a84-9162-4779-a5ca-4c1a0d4022a0",
    "parentUuid": "30cc45d9-fd3a-4d9b-a273-b131af47c3ad"
  },
  {
    "id": "137",
    "uuid": "38495c1f-b234-4191-beca-a5e2bf30b651",
    "props": {
      "code": "13.3",
      "labels": {
        "en": "Boreal birch forest"
      }
    },
    "published": true,
    "draft": false,
    "levelUuid": "1d095a84-9162-4779-a5ca-4c1a0d4022a0",
    "parentUuid": "30cc45d9-fd3a-4d9b-a273-b131af47c3ad"
  },
  {
    "id": "138",
    "uuid": "f6d69310-3648-4cea-a441-7aa0ebc97ba3",
    "props": {
      "code": "13.4",
      "labels": {
        "en": "Southern boreal birch forest"
      }
    },
    "published": true,
    "draft": false,
    "levelUuid": "1d095a84-9162-4779-a5ca-4c1a0d4022a0",
    "parentUuid": "30cc45d9-fd3a-4d9b-a273-b131af47c3ad"
  },
  {
    "id": "139",
    "uuid": "5d17ce69-4842-4bb5-a426-44d4088d9ad4",
    "props": {
      "code": "13.5",
      "labels": {
        "en": "Aspen forest"
      }
    },
    "published": true,
    "draft": false,
    "levelUuid": "1d095a84-9162-4779-a5ca-4c1a0d4022a0",
    "parentUuid": "30cc45d9-fd3a-4d9b-a273-b131af47c3ad"
  },
  {
    "id": "140",
    "uuid": "d5f2ab10-b958-45f7-b721-30bebc6902d0",
    "props": {
      "code": "14",
      "labels": {
        "en": "Plantations and self sown exotic forest"
      }
    },
    "published": true,
    "draft": false,
    "levelUuid": "a6811be9-e7ba-4291-9e10-8349e01378b3",
    "parentUuid": null
  },
  {
    "id": "141",
    "uuid": "03c31070-a24d-4274-ab01-0fd75ebb6cfb",
    "props": {
      "code": "14.1",
      "labels": {
        "en": "Plantations of site‑native species"
      }
    },
    "published": true,
    "draft": false,
    "levelUuid": "1d095a84-9162-4779-a5ca-4c1a0d4022a0",
    "parentUuid": "d5f2ab10-b958-45f7-b721-30bebc6902d0"
  },
  {
    "id": "142",
    "uuid": "39238fb8-f711-4d5f-9b55-8539eb377340",
    "props": {
      "code": "14.2",
      "labels": {
        "en": "Plantations of not‑site‑native species and self‑sown exotic forest"
      }
    },
    "published": true,
    "draft": false,
    "levelUuid": "1d095a84-9162-4779-a5ca-4c1a0d4022a0",
    "parentUuid": "d5f2ab10-b958-45f7-b721-30bebc6902d0"
  }
]