[
  {
    "id": "37",
    "uuid": "3e2fbb4f-52c8-49f6-b098-da37bcf275bc",
    "props": {
      "code": "1",
      "labels": {
        "en": "Intact, fresh"
      },
      "descriptions": {
        "en": "Recently dead, with still fresh cambium (e.g. logging residuals) with complete bark and hard wood texture. Still of original bark color."
      }
    },
    "published": true,
    "draft": false,
    "levelUuid": "6645c74a-cd94-4223-8d47-0f347fe788e5",
    "parentUuid": null
  },
  {
    "id": "38",
    "uuid": "054aee2d-2cd1-4bd6-9faf-275bed7a8f32",
    "props": {
      "code": "2",
      "labels": {
        "en": "Intact to partly decayed"
      },
      "descriptions": {
        "en": "Bark partly missing or loose, wood texture still hard and solid only slight decay. Cambium decayed, knife blade penetrates a few mm. Bark color still original."
      }
    },
    "published": true,
    "draft": false,
    "levelUuid": "6645c74a-cd94-4223-8d47-0f347fe788e5",
    "parentUuid": null
  },
  {
    "id": "39",
    "uuid": "da53be6a-5cc7-4ee5-9d86-c30dbad9d4e9",
    "props": {
      "code": "3",
      "labels": {
        "en": "Partly decayed"
      },
      "descriptions": {
        "en": "Partly soft or semi-soft consistency (knife penetrates <2cm). Bark only partly present and color changing."
      }
    },
    "published": true,
    "draft": false,
    "levelUuid": "6645c74a-cd94-4223-8d47-0f347fe788e5",
    "parentUuid": null
  },
  {
    "id": "40",
    "uuid": "a01d5996-7d32-496f-a0bc-5081c45ac748",
    "props": {
      "code": "4",
      "labels": {
        "en": "Strongly decayed"
      },
      "descriptions": {
        "en": "Strongly decayed, no bark left, partly soft and block structure, knife penetrates >2cm."
      }
    },
    "published": true,
    "draft": false,
    "levelUuid": "6645c74a-cd94-4223-8d47-0f347fe788e5",
    "parentUuid": null
  },
  {
    "id": "41",
    "uuid": "8177cdb9-122c-4bd9-8ff8-702a86180a25",
    "props": {
      "code": "5",
      "labels": {
        "en": "Completely decayed"
      },
      "descriptions": {
        "en": "Completely fragmented and powdery texture"
      }
    },
    "published": true,
    "draft": false,
    "levelUuid": "6645c74a-cd94-4223-8d47-0f347fe788e5",
    "parentUuid": null
  }
]