[
  {
    "id": "1",
    "uuid": "216d17fb-5862-4c4a-85b1-2db315e702b9",
    "props": {
      "code": "NE",
      "labels": {
        "en": "North-East"
      }
    },
    "published": true,
    "draft": false,
    "levelUuid": "56dc5f1b-4fb5-4000-adf3-2d3b12de976a",
    "parentUuid": null
  },
  {
    "id": "2",
    "uuid": "88f6d904-ccec-4a95-835d-cb3be5d4fb4d",
    "props": {
      "code": "SE",
      "labels": {
        "en": "South-East"
      }
    },
    "published": true,
    "draft": false,
    "levelUuid": "56dc5f1b-4fb5-4000-adf3-2d3b12de976a",
    "parentUuid": null
  },
  {
    "id": "3",
    "uuid": "29a97167-cce3-4848-9edd-ded2fc101252",
    "props": {
      "code": "SW",
      "labels": {
        "en": "South-West"
      }
    },
    "published": true,
    "draft": false,
    "levelUuid": "56dc5f1b-4fb5-4000-adf3-2d3b12de976a",
    "parentUuid": null
  },
  {
    "id": "4",
    "uuid": "c7446401-bfca-47ae-954c-6ae6d6b7e807",
    "props": {
      "code": "NW",
      "labels": {
        "en": "North-West"
      }
    },
    "published": true,
    "draft": false,
    "levelUuid": "56dc5f1b-4fb5-4000-adf3-2d3b12de976a",
    "parentUuid": null
  }
]