[
  {
    "id": "154",
    "uuid": "2500ce0c-14d6-4d69-994c-f2ce8c7b7b46",
    "props": {
      "code": "1",
      "labels": {
        "en": "Plot marked (new plot)"
      },
      "descriptions": {
        "en": "The plot center is marked for the first time (new plot). Default setting for PathFinder Pilot"
      }
    },
    "published": true,
    "draft": false,
    "levelUuid": "b30069c1-413a-4a1f-9d32-b6f5513a3299",
    "parentUuid": null
  },
  {
    "id": "155",
    "uuid": "3014c2ac-9c7d-4ca7-aea8-d9bf874ad55c",
    "props": {
      "code": "2",
      "labels": {
        "en": "Plot marking found (re-measurement)"
      },
      "descriptions": {
        "en": "The permanent plot mark of an existing plot was found at the right position"
      }
    },
    "published": true,
    "draft": false,
    "levelUuid": "b30069c1-413a-4a1f-9d32-b6f5513a3299",
    "parentUuid": null
  },
  {
    "id": "156",
    "uuid": "3d90359d-3e28-4793-b34b-d3d51c29ed39",
    "props": {
      "code": "3",
      "labels": {
        "en": "Marking not found, position reconstructed"
      },
      "descriptions": {
        "en": "The marking of an existing plot was not found (or unusable), but could be reconstructed from distance and angle measurements of identified trees. A new mark is set!"
      }
    },
    "published": true,
    "draft": false,
    "levelUuid": "b30069c1-413a-4a1f-9d32-b6f5513a3299",
    "parentUuid": null
  },
  {
    "id": "157",
    "uuid": "13a802f9-9f24-497d-8b7b-abe40e6b3c21",
    "props": {
      "code": "4",
      "labels": {
        "en": "Marking with offset (new or existing plot)"
      },
      "descriptions": {
        "en": "Marking is not possible at the plot center (e.g. because on a road, a skidding trail or rocks) and a marking is set using an offset direction and angle."
      }
    },
    "published": true,
    "draft": false,
    "levelUuid": "b30069c1-413a-4a1f-9d32-b6f5513a3299",
    "parentUuid": null
  },
  {
    "id": "158",
    "uuid": "60e4fc4b-2d22-4fed-8277-f3f6d65f5bed",
    "props": {
      "code": "5",
      "labels": {
        "en": "Marking not found, new plot established"
      },
      "descriptions": {
        "en": "The permanent marking was not found and the position cannot be reconstructed. A new marking was done at target position and a plot is installed."
      }
    },
    "published": true,
    "draft": false,
    "levelUuid": "b30069c1-413a-4a1f-9d32-b6f5513a3299",
    "parentUuid": null
  },
  {
    "id": "159",
    "uuid": "40871e37-fac7-4aaf-975f-445fe20f3656",
    "props": {
      "code": "6",
      "labels": {
        "en": "Plot discontinued"
      },
      "descriptions": {
        "en": "The plot needs to be discontinued, marking is obsolete"
      }
    },
    "published": true,
    "draft": false,
    "levelUuid": "b30069c1-413a-4a1f-9d32-b6f5513a3299",
    "parentUuid": null
  }
]