[
  {
    "id": "188",
    "uuid": "876d9a5f-fef0-4c3c-9295-4ae55a048916",
    "props": {
      "code": "0",
      "labels": {
        "en": "standing alive (default)"
      },
      "descriptions": {
        "en": "standing alive tree (default)"
      }
    },
    "published": true,
    "draft": false,
    "levelUuid": "5cf3f8af-d58b-4cb0-9490-166afda056b5",
    "parentUuid": null
  },
  {
    "id": "189",
    "uuid": "d3be0452-9053-4a02-bc55-a69076603ba5",
    "props": {
      "code": "1",
      "labels": {
        "en": "standing dead tree"
      },
      "descriptions": {
        "en": "A standing dead tree (complete with crown)"
      }
    },
    "published": true,
    "draft": false,
    "levelUuid": "5cf3f8af-d58b-4cb0-9490-166afda056b5",
    "parentUuid": null
  },
  {
    "id": "190",
    "uuid": "1b06fcd3-5c7d-49fb-a9e3-cea3fd41b0b7",
    "props": {
      "code": "2",
      "labels": {
        "en": "standing dead stem part"
      },
      "descriptions": {
        "en": "A standing broken dead tree or tree stem higher 1.3m"
      }
    },
    "published": true,
    "draft": false,
    "levelUuid": "5cf3f8af-d58b-4cb0-9490-166afda056b5",
    "parentUuid": null
  },
  {
    "id": "191",
    "uuid": "d18b5653-ccde-43e6-bfaf-80c00b8a52e9",
    "props": {
      "code": "3",
      "labels": {
        "en": "broken or deformed crown"
      },
      "descriptions": {
        "en": "A living tree with broken crown (or any other unusual relation between DBH and height) that should be excluded for modelling height curves"
      }
    },
    "published": true,
    "draft": false,
    "levelUuid": "5cf3f8af-d58b-4cb0-9490-166afda056b5",
    "parentUuid": null
  },
  {
    "id": "192",
    "uuid": "03a17d6e-6494-4bc5-ae19-8965722aafc1",
    "props": {
      "code": "4",
      "labels": {
        "en": "tree stump"
      },
      "descriptions": {
        "en": "Tree stump"
      }
    },
    "published": true,
    "draft": false,
    "levelUuid": "5cf3f8af-d58b-4cb0-9490-166afda056b5",
    "parentUuid": null
  }
]