[
  {
    "id": "160",
    "uuid": "4fda2bbe-b13a-4112-8fd8-2baef796582c",
    "props": {
      "code": "1",
      "labels": {
        "en": "New plot"
      },
      "descriptions": {
        "en": "A newly installed plot that was not measured before. Default for PathFinder Pilot"
      }
    },
    "published": true,
    "draft": false,
    "levelUuid": "b47ef875-c55c-4ccf-a148-fc8376b08a71",
    "parentUuid": null
  },
  {
    "id": "161",
    "uuid": "537a96c0-e75b-4e51-a2ed-536c9b718367",
    "props": {
      "code": "2",
      "labels": {
        "en": "remeasured"
      },
      "descriptions": {
        "en": "A plot that is remeasured"
      }
    },
    "published": true,
    "draft": false,
    "levelUuid": "b47ef875-c55c-4ccf-a148-fc8376b08a71",
    "parentUuid": null
  },
  {
    "id": "162",
    "uuid": "2e6b6715-8e4e-467f-83ce-ddfbf118c881",
    "props": {
      "code": "3",
      "labels": {
        "en": "discontinued"
      },
      "descriptions": {
        "en": "A plot that was measured before but is permanently discontinued for any reason (e.g. limited accessibility) and will not be measured again in future."
      }
    },
    "published": true,
    "draft": false,
    "levelUuid": "b47ef875-c55c-4ccf-a148-fc8376b08a71",
    "parentUuid": null
  },
  {
    "id": "163",
    "uuid": "cd0bb445-a863-445d-9652-d15ee0acf198",
    "props": {
      "code": "4",
      "labels": {
        "en": "non-response (not accessible)"
      },
      "descriptions": {
        "en": "A plot that is part of the plot network but cannot be accessed in the current inventory cycle. The plot cannot be reached (e.g. temporal flooding or snow cover), but the plot location is not discontinued and remains a sampling location for future assessments."
      }
    },
    "published": true,
    "draft": false,
    "levelUuid": "b47ef875-c55c-4ccf-a148-fc8376b08a71",
    "parentUuid": null
  }
]