[
  {
    "id": "202",
    "uuid": "9d9b9428-2436-49bf-9893-db94ad5ff235",
    "props": {
      "code": "0",
      "labels": {
        "en": "Discontinued tree (out)"
      },
      "descriptions": {
        "en": "The tree was measured in an earlier inventory cycle, but is definitely out of the plot"
      }
    },
    "published": true,
    "draft": false,
    "levelUuid": "0848e9bd-d701-4b1b-8c8f-e27b3bad571e",
    "parentUuid": null
  },
  {
    "id": "203",
    "uuid": "b8cf8593-8914-4423-887d-005635b02cca",
    "props": {
      "code": "1",
      "labels": {
        "en": "New tree (on new plot)"
      },
      "descriptions": {
        "en": "All trees measured for the first time on a newly installed plot (default)"
      }
    },
    "published": true,
    "draft": false,
    "levelUuid": "0848e9bd-d701-4b1b-8c8f-e27b3bad571e",
    "parentUuid": null
  },
  {
    "id": "204",
    "uuid": "a3dcf7b0-44c7-4507-b918-d13375b010d0",
    "props": {
      "code": "2",
      "labels": {
        "en": "New tree (forgotten before)"
      },
      "descriptions": {
        "en": "A tree that is measured for the first time, but should have been measured already in the last inventory cycle (unlikely to be ingrowth)"
      }
    },
    "published": true,
    "draft": false,
    "levelUuid": "0848e9bd-d701-4b1b-8c8f-e27b3bad571e",
    "parentUuid": null
  },
  {
    "id": "205",
    "uuid": "657bab71-6bfe-4d61-9950-34e704733689",
    "props": {
      "code": "3",
      "labels": {
        "en": "New tree (ingrowth)"
      },
      "descriptions": {
        "en": "A tree measured for the first time (on a re-measured plot) that is likely ingrowth (tree DBH suggests that it has grown over diameter threshold since last inventory cycle)"
      }
    },
    "published": true,
    "draft": false,
    "levelUuid": "0848e9bd-d701-4b1b-8c8f-e27b3bad571e",
    "parentUuid": null
  },
  {
    "id": "206",
    "uuid": "d6d5af80-2181-4d0f-b0c8-ee8e2825d997",
    "props": {
      "code": "4",
      "labels": {
        "en": "Re-measured tree (ongrowth)"
      },
      "descriptions": {
        "en": "A re-measured tree that was identified by its tree id and is measured repeatedly"
      }
    },
    "published": true,
    "draft": false,
    "levelUuid": "0848e9bd-d701-4b1b-8c8f-e27b3bad571e",
    "parentUuid": null
  },
  {
    "id": "207",
    "uuid": "3eb3e188-e32f-4f57-a0a7-2d041db73263",
    "props": {
      "code": "5",
      "labels": {
        "en": "Harvested tree (harvest)"
      },
      "descriptions": {
        "en": "A tree that was measured in the last inventory cycle (identified by tree id and/or stem position) but was harvested after the last inventory (stump can be identified)"
      }
    },
    "published": true,
    "draft": false,
    "levelUuid": "0848e9bd-d701-4b1b-8c8f-e27b3bad571e",
    "parentUuid": null
  },
  {
    "id": "208",
    "uuid": "cb6efb86-6363-403c-8b0a-a236e252bccb",
    "props": {
      "code": "6",
      "labels": {
        "en": "Dead tree (mortality)"
      },
      "descriptions": {
        "en": "A tree that was alive and recorded in the last inventory, but died since the last inventory"
      }
    },
    "published": true,
    "draft": false,
    "levelUuid": "0848e9bd-d701-4b1b-8c8f-e27b3bad571e",
    "parentUuid": null
  },
  {
    "id": "209",
    "uuid": "993803c6-56a9-4026-8b43-358c9d194a05",
    "props": {
      "code": "7",
      "labels": {
        "en": "Dead tree (remaining)"
      },
      "descriptions": {
        "en": "A dead tree that was measured and already dead in the last inventory cycle (long lasting standing deadwood)"
      }
    },
    "published": true,
    "draft": false,
    "levelUuid": "0848e9bd-d701-4b1b-8c8f-e27b3bad571e",
    "parentUuid": null
  }
]